<svg version="1.1" id="Layer_1" xmlns="http://www.w3.org/2000/svg" xmlns:xlink="http://www.w3.org/1999/xlink" x="0px" y="0px"
	 viewBox="0 0 514.5 129.1" enable-background="new 0 0 514.5 129.1" preserveAspectRatio="none" xml:space="preserve">
<path fill="#009789" d="M11.8,20v89.1c0,11,9,20,20,20h462.8c11,0,20-9,20-20V20c0-11-9-20-20-20H31.8c-4.5,0-8.6,1.5-11.9,4
	c-0.1,0-0.1-0.1-0.2-0.1C10.8-1,0,1.3,0,1.3C14.5,5.8,11.8,18,11.8,18V20z"/>
</svg>
