<?xml version="1.0" encoding="utf-8"?>
<!-- Generator: Adobe Illustrator 18.1.0, SVG Export Plug-In . SVG Version: 6.00 Build 0)  -->
<!DOCTYPE svg PUBLIC "-//W3C//DTD SVG 1.1//EN" "http://www.w3.org/Graphics/SVG/1.1/DTD/svg11.dtd">
<svg version="1.1" id="Layer_1" xmlns="http://www.w3.org/2000/svg" xmlns:xlink="http://www.w3.org/1999/xlink" x="0px" y="0px"
	 viewBox="0 0 400 400" enable-background="new 0 0 400 400" xml:space="preserve">
<g>
	<circle fill="#2D3640" cx="199.9" cy="200.1" r="186.8"/>
	<path fill="#FFFFFF" d="M257,93.7c0-7-5.7-12.7-12.7-12.7h-87.6c-7,0-12.7,5.7-12.7,12.7v211.6c0,7,5.7,12.7,12.7,12.7h87.6
		c7,0,12.7-5.7,12.7-12.7V93.7z M201.6,313c-5.9,0-10.8-4.8-10.8-10.8s4.8-10.8,10.8-10.8c5.9,0,10.8,4.8,10.8,10.8
		S207.6,313,201.6,313z M251,283c0,1.1-0.9,2-2,2H154c-1.1,0-2-0.9-2-2V111c0-1.1,0.9-2,2-2H249c1.1,0,2,0.9,2,2V283z"/>
</g>
</svg>
