<?xml version="1.0" encoding="utf-8"?>
<!-- Generator: Adobe Illustrator 19.0.1, SVG Export Plug-In . SVG Version: 6.00 Build 0)  -->
<svg version="1.1" id="Layer_1"
    xmlns="http://www.w3.org/2000/svg" xmlns:xlink="http://www.w3.org/1999/xlink" x="0px" y="0px" viewBox="89 -90.9 264.6 265.2"
    style="enable-background:new 89 -90.9 264.6 265.2;" xml:space="preserve">
<circle fill="#428ac9" cx="221.3" cy="39" r="125"/>
<g id="Layer_16">
	<path class="st1" fill="#ffffff" d="M285.2,45.9l-58.9-59c-1.6-1.6-3.3-2-4.8-1.9c-1.5-0.1-3.2,0.3-4.8,1.9l-58.9,58.9c0,0-2.5,2.2,0,4.2h15.3
		l0.9,0.4v45.9c0,2.6,2.2,4.7,4.8,4.7h23.4c2.6,0,3.9-2.1,3.9-4.7V55.1h30.5h0.5v41.3c0,2.6,2.6,4.7,5.2,4.7h23.4
		c2.6,0,4.5-2.1,4.5-4.7V50.1h15.2C287.7,48.1,285.2,45.9,285.2,45.9z"/>
</g>
</svg>
