<?xml version="1.0" encoding="utf-8"?>
<!-- Generator: Adobe Illustrator 19.1.0, SVG Export Plug-In . SVG Version: 6.00 Build 0)  -->
<svg version="1.1" id="Layer_1" xmlns="http://www.w3.org/2000/svg" xmlns:xlink="http://www.w3.org/1999/xlink" x="0px" y="0px" viewBox="0 0 84.7 84.7"
	 style="enable-background:new 0 0 84.7 84.7;" xml:space="preserve">
<style type="text/css">
	.st0{fill:#F16600;}
	.st1{fill:#E6E6E6;}
	.st2{fill:#B3B3B3;}
	.st3{fill:#009688;}
	.st4{fill:#30537A;}
	.st5{fill:#4172B0;}
	.st6{fill:#FFFFFF;}
	.st7{fill:#FFB733;}
	.st8{fill:#67A4FE;}
	.st9{fill:#FFD350;}
	.st10{fill:#BA000E;}
	.st11{fill:#6F201F;}
	.st12{fill:#4A8D8A;}
	.st13{fill:#3B556C;}
	.st14{fill:#B04155;}
	.st15{fill:#D3AF73;}
	.st16{fill:#5D432A;}
	.st17{fill:#B88554;}
	.st18{fill:#CCCCCC;}
	.st19{fill:#333333;}
	.st20{fill:#666666;}
</style>
<g id="Time_Block_3_">
	<path class="st10" d="M42.4,4c21.2,0,38.4,17.2,38.4,38.4c0,21.2-17.2,38.4-38.4,38.4S4,63.5,4,42.4C4,21.2,21.2,4,42.4,4 M42.4,0
		C19,0,0,19,0,42.4c0,23.4,19,42.4,42.4,42.4c23.4,0,42.4-19,42.4-42.4C84.7,19,65.8,0,42.4,0L42.4,0z"/>
	<circle class="st6" cx="41" cy="43.1" r="24"/>
	<path class="st11" d="M42.4,15.4c-14.9,0-27,12.1-27,27c0,14.9,12.1,27,27,27c14.9,0,27-12.1,27-27C69.4,27.5,57.3,15.4,42.4,15.4z
		 M42.4,62.4c-11.1,0-20-9-20-20c0-11.1,9-20,20-20c11.1,0,20,9,20,20C62.4,53.4,53.4,62.4,42.4,62.4z"/>
	<path class="st12" d="M43.2,42.8l-0.4,0.5c-0.3,0.5-1,0.6-1.4,0.3l-11.8-8.1c-0.5-0.3-0.6-1-0.3-1.4l0.4-0.5c0.3-0.5,1-0.6,1.4-0.3
		l11.8,8.1C43.4,41.7,43.5,42.3,43.2,42.8z"/>
	<path class="st12" d="M43,43.9l-0.2-1c-0.2-0.9,0.4-1.8,1.3-1.9l9.4-1.8c0.9-0.2,1.8,0.4,1.9,1.3l0.2,1c0.2,0.9-0.4,1.8-1.3,1.9
		l-9.4,1.8C44,45.4,43.2,44.8,43,43.9z"/>
	<circle class="st13" cx="43" cy="43.1" r="3"/>
	<circle class="st6" cx="43" cy="43.1" r="1.7"/>
</g>
</svg>
