<svg version="1.1" id="Layer_1"
	 xmlns="http://www.w3.org/2000/svg" xmlns:xlink="http://www.w3.org/1999/xlink" x="0px" y="0px" viewBox="-34 88.7 84.7 84.7"
	 style="enable-background:new -34 88.7 84.7 84.7;" xml:space="preserve">
<style type="text/css">
	.st0{fill:#009688;}
	.st1{display:none;fill:#30537A;}
	.st2{fill:#255C84;}
	.st3{fill:#FFFFFF;}
</style>

<path class="st0" d="M8.4,92.7c21.2,0,38.4,17.2,38.4,38.4s-17.3,38.3-38.4,38.3c-21.2,0-38.4-17.2-38.4-38.3S-12.8,92.7,8.4,92.7
	 M8.4,88.7c-23.4,0-42.4,19-42.4,42.4s19,42.4,42.4,42.4s42.4-19,42.4-42.4C50.7,107.7,31.8,88.7,8.4,88.7L8.4,88.7z"/>
<path class="st1" d="M-14.3,112.9h24.7c2,0,1.9,2.5,1.9,4.6v15.2c0,2,0.2,4.2-1.9,4.2H-9.5l-4.2,3.8v-3.8h-0.7c-2,0-4.3-2.2-4.3-4.2
	v-15.2C-18.7,115.5-16.3,112.9-14.3,112.9z"/>
<g>
	<path class="st2" d="M-16.2,117.5v23.9c0,3.1,2.1,7.2,5.2,7.2c-1.1,3-2.3,6-3.4,9.1c7.7-3.1,15.3-6.1,23-9.2
		c6.4,0,12.8,0.1,19.2,0.1c0.4,0,3.1,0.3,5.3-1.8c2.2-2.2,2-5,1.9-5.4c0-8,0-15.9,0-23.9c0-3.2-4.1-4-7.2-4h-38.5
		c-0.5,0-2.2,0.1-3.7,1.4C-15.6,115.8-16,117-16.2,117.5z"/>
	<circle class="st3" cx="20.2" cy="129.4" r="2.9"/>
	<circle class="st3" cx="8.5" cy="129.2" r="2.9"/>
	<circle class="st3" cx="-3.1" cy="129.4" r="2.9"/>
</g>
</svg>
