<?xml version="1.0" encoding="utf-8"?>
<!-- Generator: Adobe Illustrator 18.1.0, SVG Export Plug-In . SVG Version: 6.00 Build 0)  -->
<!DOCTYPE svg PUBLIC "-//W3C//DTD SVG 1.1//EN" "http://www.w3.org/Graphics/SVG/1.1/DTD/svg11.dtd">
<svg version="1.1" id="Layer_1" xmlns="http://www.w3.org/2000/svg" xmlns:xlink="http://www.w3.org/1999/xlink" x="0px" y="0px"
	 viewBox="0 0 400 400" enable-background="new 0 0 400 400" xml:space="preserve">
<g>
	<circle fill="#E6E6E6" cx="199.5" cy="199.9" r="186.1"/>
	<path fill="#FFFFFF" d="M185.8,186.1c0-1.5,0-2.6,0-3.7c0-12.4,0-24.8,0.1-37.2c0-1.9,0.2-3.9,0.8-5.7c1.1-3.6,3.6-5.3,7.3-5.4
		c3.7-0.1,7.4-0.1,11.1,0c4.4,0.1,7.3,2.6,8.1,6.9c0.3,1.5,0.3,3.1,0.3,4.6c0,12.2,0,24.4-0.1,36.6c0,1.1,0,2.2,0,3.7
		c1.4,0.1,2.6,0.2,3.7,0.2c12.3,0,24.6,0,36.9,0.1c2.2,0,4.5,0.3,6.6,1c3,1,4.6,3.4,4.7,6.6c0.1,4,0.1,8,0,12c-0.2,4.2-2.8,7-7,7.7
		c-1.4,0.2-2.9,0.2-4.3,0.2c-12.5,0-25,0.1-37.5,0c-2.5,0-3.3,0.7-3.3,3.2c0.1,12.9,0,25.8,0,38.7c0,7.7-2.4,10.1-10.1,10.1
		c-3,0-5.9,0-8.9,0c-5.3-0.1-8.1-2.7-8.5-8c-0.1-1-0.1-2-0.1-3.1c0-12.3,0.1-24.6,0.1-36.9c0-1.2,0-2.4,0-3.9
		c-1.4-0.1-2.5-0.2-3.6-0.2c-12.7,0-25.4,0-38.1,0c-8,0-10.3-2.4-10.3-10.2c0-2.9,0-5.7,0-8.6c0.1-5.8,2.8-8.6,8.7-8.7
		c9.5-0.1,19,0,28.6-0.1C175.8,186.1,180.6,186.1,185.8,186.1z"/>
</g>
</svg>
