<?xml version="1.0" encoding="utf-8"?>
<!-- Generator: Adobe Illustrator 18.1.0, SVG Export Plug-In . SVG Version: 6.00 Build 0)  -->
<!DOCTYPE svg PUBLIC "-//W3C//DTD SVG 1.1//EN" "http://www.w3.org/Graphics/SVG/1.1/DTD/svg11.dtd">
<svg version="1.1" id="Layer_1" xmlns="http://www.w3.org/2000/svg" xmlns:xlink="http://www.w3.org/1999/xlink" x="0px" y="0px"
	 viewBox="0 0 400 400" enable-background="new 0 0 400 400" xml:space="preserve">
<g>
	<circle fill="#BA000E" cx="200" cy="199.3" r="186.8"/>
	<circle fill="#FFFFFF" cx="193.9" cy="202.4" r="105.6"/>
	<path fill="#6F201F" d="M200,80.3c-65.7,0-119,53.3-119,119c0,65.7,53.3,119,119,119c65.7,0,119-53.3,119-119
		C318.9,133.5,265.7,80.3,200,80.3z M200,287.6c-48.8,0-88.3-39.5-88.3-88.3s39.5-88.3,88.3-88.3c48.8,0,88.3,39.5,88.3,88.3
		S248.7,287.6,200,287.6z"/>
	<path fill="#4A8D8A" d="M203.5,201.5l-1.6,2.3c-1.4,2.1-4.3,2.6-6.3,1.2l-52.1-35.7c-2.1-1.4-2.6-4.3-1.2-6.3l1.6-2.3
		c1.4-2.1,4.3-2.6,6.3-1.2l52.1,35.7C204.4,196.6,205,199.5,203.5,201.5z"/>
	<path fill="#4A8D8A" d="M202.7,206.5l-0.8-4.5c-0.7-4,1.9-7.8,5.9-8.6l41.3-7.7c4-0.7,7.8,1.9,8.6,5.9l0.8,4.5
		c0.7,4-1.9,7.8-5.9,8.6l-41.3,7.7C207.3,213.2,203.4,210.5,202.7,206.5z"/>
	<circle fill="#3B556C" cx="202.6" cy="202.4" r="13.3"/>
	<circle fill="#FFFFFF" cx="202.7" cy="202.4" r="7.6"/>
</g>
</svg>
