<?xml version="1.0" encoding="utf-8"?>
<!-- Generator: Adobe Illustrator 18.1.0, SVG Export Plug-In . SVG Version: 6.00 Build 0)  -->
<!DOCTYPE svg PUBLIC "-//W3C//DTD SVG 1.1//EN" "http://www.w3.org/Graphics/SVG/1.1/DTD/svg11.dtd">
<svg version="1.1" id="Layer_1" xmlns="http://www.w3.org/2000/svg" xmlns:xlink="http://www.w3.org/1999/xlink" x="0px" y="0px"
	 viewBox="0 0 400 400" enable-background="new 0 0 400 400" xml:space="preserve">
<g>
	<circle fill="#67A4FE" cx="200" cy="199.7" r="186.8"/>
	<path fill="#FFD350" d="M204,85.2c-1-0.1-2.7-0.1-2.7-0.1c-1.8,0-0.9,0-1.1,0c-0.4,0-0.9,0-1.2,0c-63.9,0-116,52-116,115.9
		s51.9,115.9,115.8,115.9c63.9,0,115.9-52,115.9-115.9C314.6,138.8,265.5,87.9,204,85.2z M303.9,193h-40.2
		c-0.4-10-1.6-21.3-3.8-32.4c-1-5.2-2.3-9.5-3.6-14.3c9.2-3.1,17.6-7.9,25-12.3C294.5,150.7,302.8,171,303.9,193z M274.2,127.6
		c-6.3,3.6-13.4,6.7-21.2,9.3c-5.3-14.7-12.1-26.8-20.1-35.6C248.7,106.8,262.8,115.9,274.2,127.6z M206,156.7c14-0.7,28-3,41.2-6.6
		c1.3,4.4,1.9,7.7,2.9,12.6c2.1,10.3,2.8,20.3,3.1,30.3H206V156.7z M195,193h-46.8c0.4-10,1.6-20,3.7-30.3c0.8-3.8,2.4-6.9,3.4-10.4
		C167.8,155,181,157,195,157V193z M195,203v40.9c-14,0.1-27.3,0.1-39.9,2.9c-3.8-13.2-6.6-26.8-7-43.8H195z M206,203h47.3
		c-0.3,17-1.6,32.4-6,46.4c-13.3-3.6-27.3-4.6-41.3-5.3V203z M245,140c-12.2,3.3-27,5.3-39,6V95.8C220,97.7,235.7,114.4,245,140z
		 M195,96.7v49.6c-13,0-24.3-1.2-35.9-3.6C167.6,117.9,179,100.9,195,96.7z M170.1,99.5c-9.2,9.5-17.1,23.4-22.9,40.6
		c-9.3-2.7-18-6.2-25.8-10.8C134.5,115.3,151.2,104.9,170.1,99.5z M114.6,136.2c9,5.5,19,10.2,29.6,13.3c-1,3.8-1.9,6.9-2.7,10.9
		c-2.2,11.1-3.5,22.7-3.8,32.7H93.4C94.5,172,102.2,152.5,114.6,136.2z M114.3,262.2C102.1,245.9,94.5,227,93.4,203h44.2
		c0.3,17,2.4,32.1,6.4,45.8C133.3,251.9,123.3,256.7,114.3,262.2z M121.1,272.2c7.9-4.7,16.8-8.3,26.2-11
		c6.6,17.9,16.3,32.3,28.7,42.7C154.5,299.1,135.4,287.8,121.1,272.2z M159.3,258.5c11.5-2.4,22.7-3.5,35.7-3.6v48.1
		C177,293.7,166.6,277.8,159.3,258.5z M206,305.2v-50c12,0.7,26.6,2.7,38.8,6C236.7,280.7,223,296.6,206,305.2z M227.1,302.4
		c10.9-9.6,19.6-22.5,25.8-38.1c7.9,2.7,15.2,5.9,21.7,9.6C261.8,287.3,245.4,297.3,227.1,302.4z M281.6,264.2
		c-7.4-4.5-15.9-7.7-25.2-10.8c0.3-0.9,0.6-2.7,0.8-3.6c4-13.9,6.2-28.8,6.5-46.8h40.1C302.8,227,294.6,247.6,281.6,264.2z"/>
</g>
</svg>
