<svg version="1.1" id="Layer_1"
	 xmlns="http://www.w3.org/2000/svg" xmlns:xlink="http://www.w3.org/1999/xlink" x="0px" y="0px" viewBox="143 -170.8 372.2 425.1"
	 style="enable-background:new 143 -170.8 372.2 425.1;" xml:space="preserve">
<style type="text/css">
	.st0{display:none;fill:#428AC9;stroke:#000000;stroke-miterlimit:10;}
	.st1{fill:#FFFFFF;}
</style>
<rect x="143" y="-170.8" class="st0" width="372.2" height="425.1"/>
<path class="st1" d="M320.2,244.4c-4.9-1.6-49.1-17-91.7-62.3C189,140.2,144,63.9,153.8-61.6c0.4-6,0.8-9.7,0.8-9.7l3.5-29.1
	l28.6,6.6c7.1,1.6,14.3,2.5,21.5,2.5c56,0,99.7-50.6,100.1-51.2l20.1-24l20.2,24.1c0.4,0.5,44.3,51.1,100,51.1l0,0
	c7.2,0,14.5-0.9,21.5-2.5l28.6-6.7l3.5,29.1c0,0,0.4,3.6,0.9,9.9C513,63.9,468,140.2,428.4,182.1c-42.7,45.3-86.9,60.7-91.7,62.3
	l-8.2,2.7L320.2,244.4z M175.8-68.8c0,0-0.4,3.2-0.8,8.8c-9.3,117.8,32.4,188.8,69,227.5c39.7,42.1,81.2,56.1,82.9,56.6l1.6,0.5
	l1.6-0.5c1.7-0.6,43.2-14.5,82.9-56.6c36.6-38.8,78.2-109.7,69-227.5c-0.4-5.6-0.8-8.8-0.8-8.8l-0.7-5.6l-5.5,1.3
	c-8.7,2-17.5,3-26.4,3c-66.5,0-115.9-58.1-116.4-58.7l-3.9-4.6l-3.8,4.6c-0.5,0.6-50.1,58.7-116.4,58.7c-8.8,0-17.7-1-26.4-3
	l-5.5-1.3L175.8-68.8z"/>
<path class="st1" d="M501.9-61.3c-0.4-6.3-0.9-9.9-0.9-9.9L497.7-99l-27.2,6.4c-7.2,1.7-14.5,2.5-21.8,2.5
	c-56.5,0-100.6-51.1-101-51.5l-19.2-22.8l-19.1,22.8C309-141.1,264.8-90,208.3-90c-7.3,0-14.6-0.8-21.8-2.5l-27.2-6.4L156-71.1
	c0,0-0.5,3.6-0.9,9.6c-9.8,125.1,35,201.1,74.4,242.8c42.4,45,86.4,60.4,91.2,62l7.8,2.6l7.8-2.6c4.9-1.6,48.8-16.9,91.2-62
	C466.9,139.5,511.7,63.5,501.9-61.3z M413.9,168.4c-40,42.4-81.7,56.4-83.5,57l-2,0.7l-1.9-0.7c-1.8-0.6-43.5-14.6-83.4-57
	c-36.7-39-78.6-110.2-69.3-228.5c0.4-5.6,0.8-8.8,0.8-8.8l0.8-7l6.8,1.6c8.6,2,17.4,3,26.1,3l0,0c65.9,0,114.9-57.6,115.4-58.2
	l4.8-5.8l4.8,5.8c0.5,0.6,49.5,58.2,115.4,58.2c8.7,0,17.5-1,26.1-3l6.8-1.6l0.9,6.9c0,0,0.4,3.2,0.8,8.9
	C492.4,58.2,450.6,129.4,413.9,168.4z"/>
<path class="st1" d="M351.4,23.3l-34.5-12.4l16-4.9L351.4,23.3z M467.6-56.9c-6.3,0.9-12.6,1.4-18.9,1.4
	c-58.1,0-103-38.7-120.2-56.1c-17.2,17.3-62.4,56.1-120.2,56.1c-6.3,0-12.6-0.5-18.9-1.4c-4.1,55.2,3.5,99.3,16.3,134.3l24.7-12.2
	l32-76.3l48.5-50.3l-1,30.2l-11.6,15.8L350-58.6l-13.1,35.3l-4.1,10.8l24.4,19.4l-5.7,16.4l37.8,12.8c0,0,26,7.2,17.7,24
	c-4.1-0.5-9.4-3.7-13.9-9.5c0,0,2.4,7.6,11.9,13.2c-3.5,7.1-12.6,36.2-78.2,29.7l8.9,112.8c14.1-6.5,40.9-21.2,66.8-48.7
	C436.7,121.1,475.8,54.4,467.6-56.9z"/>
</svg>
