<?xml version="1.0" encoding="utf-8"?>
<!-- Generator: Adobe Illustrator 19.1.0, SVG Export Plug-In . SVG Version: 6.00 Build 0)  -->
<svg version="1.1" id="Layer_1" xmlns="http://www.w3.org/2000/svg" xmlns:xlink="http://www.w3.org/1999/xlink" x="0px" y="0px"
	 viewBox="0 0 85.3 85.3" style="enable-background:new 0 0 85.3 85.3;" xml:space="preserve">
<style type="text/css">
	.st0{fill:#E6E6E6;}
	.st1{fill:#FFFFFF;}
	.st2{fill:#009688;}
	.st3{fill:#30537A;}
	.st4{fill:#4172B0;}
	.st5{fill:#FFB733;}
	.st6{fill:#BA000E;}
	.st7{fill:#6F201F;}
	.st8{fill:#4A8D8A;}
	.st9{fill:#3B556C;}
	.st10{fill:#D3AF73;}
	.st11{fill:#5D432A;}
	.st12{fill:#B88554;}
	.st13{fill:#B04155;}
	.st14{fill:#67A4FE;}
	.st15{fill:#E94C3A;}
	.st16{opacity:0.5;fill:#E94C3A;}
	.st17{fill:#CCCCCC;}
	.st18{opacity:0.5;fill:#CCCCCC;}
	.st19{fill:#AF392C;}
	.st20{fill-rule:evenodd;clip-rule:evenodd;fill:#FFFFFF;}
	.st21{fill:#2D3640;}
	.st22{fill:#229297;}
	.st23{fill:#81DBDE;}
	.st24{fill:#EFC84A;}
	.st25{fill:#F16600;}
	.st26{fill:#B3B3B3;}
	.st27{fill:#FFD350;}
	.st28{fill:#178F78;}
	.st29{fill:#FEFEFE;}
	.st30{fill-rule:evenodd;clip-rule:evenodd;fill:#FFB733;}
	.st31{fill:#467BBD;}
	.st32{fill:#999999;}
	.st33{fill:#333333;}
	.st34{fill:#666666;}
</style>
<g>
	<g>
		<circle class="st21" cx="42.8" cy="42.6" r="42.4"/>
	</g>
	<g>
		<g>
			<path class="st22" d="M57.3,60.4H29.4c-1,0-1.8-0.8-1.8-1.8V24.5c0-1,0.8-1.8,1.8-1.8h27.8c1,0,1.8,0.8,1.8,1.8v34.2
				C59,59.7,58.2,60.4,57.3,60.4z"/>
			<path class="st23" d="M40.6,67.7l-11.8-7.3c-0.5-0.2-1.2-0.6-1.2-1.9v-34c0-1,0.9-2,2.1-1.6l11.9,7.4c1.4,0.9,1.8,1.3,1.8,2.1
				v34.1C43.3,67.7,42.2,68.6,40.6,67.7z"/>
		</g>
		<g>
			<path class="st1" d="M68.2,44.4H50.4c-0.6,0-1.1-0.5-1.1-1.1l0,0c0-0.6,0.5-1.1,1.1-1.1h17.8c0.6,0,1.1,0.5,1.1,1.1l0,0
				C69.2,43.9,68.8,44.4,68.2,44.4z"/>
			<path class="st1" d="M68.9,44.1L63,50c-0.4,0.4-1.1,0.4-1.5,0l0,0c-0.4-0.4-0.4-1.1,0-1.5l5.9-5.9c0.4-0.4,1.1-0.4,1.5,0l0,0
				C69.4,43,69.4,43.7,68.9,44.1z"/>
			<path class="st1" d="M67.4,44.1l-5.9-5.9c-0.4-0.4-0.4-1.1,0-1.5l0,0c0.4-0.4,1.1-0.4,1.5,0l5.9,5.9c0.4,0.4,0.4,1.1,0,1.5l0,0
				C68.5,44.5,67.8,44.5,67.4,44.1z"/>
		</g>
	</g>
</g>
</svg>
