<?xml version="1.0" encoding="utf-8"?>
<!-- Generator: Adobe Illustrator 19.1.0, SVG Export Plug-In . SVG Version: 6.00 Build 0)  -->
<svg version="1.1" id="Layer_1" xmlns="http://www.w3.org/2000/svg" xmlns:xlink="http://www.w3.org/1999/xlink" x="0px" y="0px"
	 viewBox="0 0 85.3 85.3" style="enable-background:new 0 0 85.3 85.3;" xml:space="preserve">
<style type="text/css">
	.st0{fill:#E6E6E6;}
	.st1{fill:#FFFFFF;}
	.st2{fill:#009688;}
	.st3{fill:#30537A;}
	.st4{fill:#4172B0;}
	.st5{fill:#FFB733;}
	.st6{fill:#BA000E;}
	.st7{fill:#6F201F;}
	.st8{fill:#4A8D8A;}
	.st9{fill:#3B556C;}
	.st10{fill:#D3AF73;}
	.st11{fill:#5D432A;}
	.st12{fill:#B88554;}
	.st13{fill:#B04155;}
	.st14{fill:#67A4FE;}
	.st15{fill:#E94C3A;}
	.st16{opacity:0.5;fill:#E94C3A;}
	.st17{fill:#CCCCCC;}
	.st18{opacity:0.5;fill:#CCCCCC;}
	.st19{fill:#AF392C;}
	.st20{fill-rule:evenodd;clip-rule:evenodd;fill:#FFFFFF;}
	.st21{fill:#2D3640;}
	.st22{fill:#229297;}
	.st23{fill:#81DBDE;}
	.st24{fill:#EFC84A;}
	.st25{fill:#F16600;}
	.st26{fill:#B3B3B3;}
	.st27{fill:#FFD350;}
	.st28{fill:#178F78;}
	.st29{fill:#FEFEFE;}
	.st30{fill-rule:evenodd;clip-rule:evenodd;fill:#FFB733;}
	.st31{fill:#467BBD;}
	.st32{fill:#999999;}
	.st33{fill:#333333;}
	.st34{fill:#666666;}
</style>
<g>
    <rect class="st0" width="90" height="90"/>
	<g>
		<g>
			<path class="st18" d="M49.3,26.6v-10l-0.2-0.3H25.8c-1.7,0-3.5,1.4-3.5,3v47.2c0,1.7,1.8,1.7,3.5,1.7h33.9c1.7,0,2.5-0.1,2.5-1.7
				V30l0-0.7h-10C50.6,29.3,49.3,28.2,49.3,26.6z"/>
			<path class="st17" d="M49.3,26.6c0,1.7,1.3,2.7,3,2.7h10l-13-12.7V26.6z"/>
		</g>
		<path class="st1" d="M54.2,50c-0.5-0.9-1.4-1.5-2.4-1.8c-1.4-0.5-2.8-0.7-4.3-0.6c-0.4,0-0.7,0-1.1,0c-0.1,0-0.2,0-0.3-0.1
			c-1.3-1.5-2.5-3.1-3.5-4.8c-0.1-0.2-0.1-0.4-0.1-0.6c0.6-2.1,1.1-4.3,1.3-6.5c0.1-0.8-0.2-1.2-0.9-1.6c-1-0.6-2.6-0.1-3,1.1
			c-0.2,0.7-0.3,1.4-0.3,2.1c0,1.7,0.4,3.3,1,4.9c0.1,0.2,0.1,0.4,0,0.6c-0.9,2.4-2,4.6-3.4,6.7c-0.1,0.1-0.2,0.2-0.3,0.3
			c-0.6,0.2-1.2,0.5-1.8,0.8C34.1,51,33,51.7,32,52.5c-0.6,0.6-1.1,1.3-1.3,2.1c-0.2,1.2,0.5,2.2,1.9,1.8c0.8-0.2,1.5-0.7,2.1-1.2
			c1.3-1.2,2.4-2.6,3.4-4.1c0.1-0.2,0.3-0.3,0.5-0.4c2.1-0.7,4.2-1.2,6.4-1.6c0.5-0.1,0.9,0,1.2,0.4c0.1,0.2,0.3,0.3,0.4,0.5
			c1,1.1,2.2,2,3.5,2.8c0.7,0.4,1.5,0.7,2.3,0.6C54.2,53.4,55.2,51.6,54.2,50z M32.3,55c0-0.3,0.1-0.5,0.3-0.7
			c0.8-1,1.8-1.6,2.8-2.1C34.6,53.2,33.7,54.4,32.3,55z M41.4,35.7c0.1-0.3,0.2-0.5,0.5-0.5c0.2,0,0.4,0,0.4,0.3
			c-0.1,1.4-0.3,2.8-0.7,4.2c-0.2-0.6-0.3-1.1-0.3-1.6C41.2,37.3,41.2,36.5,41.4,35.7z M44.1,47.8c-1.4,0.2-2.8,0.5-4.1,0.9
			c-0.1,0-0.2,0.1-0.3,0c0.8-1.4,1.6-2.9,2.2-4.4c0.1,0,0.1,0.1,0.2,0.2c0.7,1.1,1.4,2.1,2.2,3C44.4,47.8,44.4,47.8,44.1,47.8z
			 M52.4,51.9c-0.5,0.1-0.9,0-1.3-0.2c-1.3-0.6-2.3-1.6-3.4-2.6c0.8,0,1.6,0.1,2.3,0.2c0.7,0.1,1.4,0.3,2,0.6
			c0.4,0.2,0.7,0.5,0.9,0.9C53.2,51.4,53,51.8,52.4,51.9z"/>
	</g>
</g>
</svg>
