<?xml version="1.0" encoding="utf-8"?>
<!-- Generator: Adobe Illustrator 19.1.0, SVG Export Plug-In . SVG Version: 6.00 Build 0)  -->
<svg version="1.1" id="Layer_1" xmlns="http://www.w3.org/2000/svg" xmlns:xlink="http://www.w3.org/1999/xlink" x="0px" y="0px"
	 viewBox="0 0 85.3 85.3" style="enable-background:new 0 0 85.3 85.3;" xml:space="preserve">
<style type="text/css">
	.st0{fill:#E6E6E6;}
	.st1{fill:#FFFFFF;}
	.st2{fill:#009688;}
	.st3{fill:#30537A;}
	.st4{fill:#4172B0;}
	.st5{fill:#FFB733;}
	.st6{fill:#BA000E;}
	.st7{fill:#6F201F;}
	.st8{fill:#4A8D8A;}
	.st9{fill:#3B556C;}
	.st10{fill:#D3AF73;}
	.st11{fill:#5D432A;}
	.st12{fill:#B88554;}
	.st13{fill:#B04155;}
	.st14{fill:#67A4FE;}
	.st15{fill:#E94C3A;}
	.st16{opacity:0.5;fill:#E94C3A;}
	.st17{fill:#CCCCCC;}
	.st18{opacity:0.5;fill:#CCCCCC;}
	.st19{fill:#AF392C;}
	.st20{fill-rule:evenodd;clip-rule:evenodd;fill:#FFFFFF;}
	.st21{fill:#2D3640;}
	.st22{fill:#229297;}
	.st23{fill:#81DBDE;}
	.st24{fill:#EFC84A;}
	.st25{fill:#F16600;}
	.st26{fill:#B3B3B3;}
	.st27{fill:#FFD350;}
	.st28{fill:#178F78;}
	.st29{fill:#FEFEFE;}
	.st30{fill-rule:evenodd;clip-rule:evenodd;fill:#FFB733;}
	.st31{fill:#467BBD;}
	.st32{fill:#999999;}
	.st33{fill:#333333;}
	.st34{fill:#666666;}
</style>
<g>
    <rect class="st17" width="90" height="90"/>
	<g>
		<path class="st33" d="M56.7,20.6c0.1,0.5,0.2,1,0.2,1.6c0.1,0.5,0.2,1,0.2,1.6c0,0.1,0.1,0.2,0.2,0.3c0.6,0.4,1.3,0.8,2,1.1
			c0.1,0,0.2,0,0.3,0c1-0.4,2-0.8,3-1.2c0.2-0.1,0.4-0.1,0.6-0.1c0.1,0,0.3,0.1,0.4,0.3c0.9,1.5,1.7,3,2.5,4.4
			c0.2,0.4,0.2,0.7-0.2,1c-0.8,0.7-1.6,1.3-2.5,2c-0.2,0.1-0.2,0.2-0.2,0.5c0,0.6,0,1.2,0,1.8c0,0,0,0.1,0,0.1
			c-0.1,0.3,0,0.5,0.3,0.7c0.9,0.6,1.7,1.2,2.6,1.8c0.3,0.2,0.4,0.5,0.2,0.9c-0.2,0.3-0.3,0.6-0.5,0.9c-0.7,1.2-1.4,2.4-2.1,3.6
			c-0.2,0.4-0.5,0.5-0.9,0.3c-1-0.4-2-0.8-3-1.2c-0.1-0.1-0.2,0-0.4,0c-0.6,0.4-1.3,0.7-1.9,1.1c-0.1,0.1-0.2,0.2-0.2,0.3
			c-0.2,1.1-0.3,2.1-0.5,3.2c-0.1,0.4-0.3,0.6-0.7,0.6c-0.5,0-1,0-1.6,0c-1.2,0-2.4,0-3.5,0c-0.6,0-0.8-0.1-0.8-0.7
			c-0.2-1-0.3-2-0.5-3.1c0-0.1-0.1-0.2-0.2-0.2c-0.7-0.4-1.3-0.8-2-1.2c-0.1,0-0.2,0-0.3,0c-1,0.4-2,0.8-3,1.2
			c-0.1,0.1-0.3,0.1-0.5,0.1c-0.2,0-0.4-0.1-0.5-0.3c-0.8-1.5-1.7-2.9-2.5-4.4c-0.2-0.4-0.2-0.7,0.2-1c0.8-0.7,1.7-1.3,2.5-2
			c0.1-0.1,0.1-0.2,0.1-0.4c0-0.6,0-1.2,0-1.9c0,0,0-0.1,0-0.1c0.1-0.3,0-0.5-0.3-0.7c-0.8-0.6-1.6-1.2-2.3-1.8
			c-0.1-0.1-0.3-0.3-0.4-0.4c-0.1-0.2-0.1-0.4,0-0.6c0.8-1.4,1.7-2.9,2.5-4.3c0.3-0.5,0.6-0.6,1.2-0.4c1,0.4,1.9,0.8,2.9,1.2
			c0.1,0.1,0.2,0,0.4,0c0.7-0.4,1.3-0.8,2-1.2c0.1,0,0.1-0.1,0.1-0.2c0.2-1.1,0.3-2.2,0.5-3.3c0.1-0.4,0.3-0.6,0.7-0.6
			c1.8,0,3.5,0,5.3,0C56.6,19.8,56.8,20.1,56.7,20.6z M53.6,37.7c2.5,0,4.6-2.1,4.6-4.6c0-2.5-2.1-4.6-4.6-4.6
			c-2.5,0-4.7,2.1-4.6,4.6C48.9,35.6,51.1,37.7,53.6,37.7z"/>
		<path class="st34" d="M43.1,27.9c0.1,0.7,0.2,1.6,0.4,2.4c0.1,0.8,0.2,1.6,0.4,2.3c0,0.2,0.2,0.4,0.3,0.5c1,0.6,1.9,1.2,2.9,1.7
			c0.1,0.1,0.3,0.1,0.4,0c1.5-0.6,3-1.2,4.5-1.8c0.3-0.1,0.6-0.2,0.9-0.1c0.2,0,0.5,0.2,0.6,0.4c1.3,2.2,2.5,4.4,3.8,6.6
			c0.3,0.6,0.2,1-0.3,1.4c-1.2,1-2.4,2-3.7,3C53.1,44.5,53,44.7,53,45c0.1,0.9,0,1.8,0,2.7c0,0,0,0.1,0,0.1c-0.1,0.5,0,0.8,0.5,1.1
			c1.3,0.9,2.6,1.8,3.9,2.7c0.5,0.4,0.6,0.8,0.3,1.3c-0.2,0.4-0.5,0.9-0.7,1.3c-1,1.8-2.1,3.6-3.1,5.4c-0.4,0.6-0.8,0.8-1.4,0.5
			c-1.5-0.6-3-1.2-4.5-1.8c-0.2-0.1-0.4-0.1-0.6,0.1c-0.9,0.6-1.9,1.1-2.8,1.7c-0.1,0.1-0.3,0.3-0.3,0.5c-0.3,1.6-0.5,3.2-0.7,4.7
			c-0.1,0.5-0.5,0.9-1.1,0.9c-0.8,0-1.5,0-2.3,0c-1.8,0-3.5,0-5.3,0c-0.9,0-1.1-0.2-1.3-1.1c-0.2-1.5-0.5-3.1-0.7-4.6
			c0-0.1-0.1-0.3-0.3-0.4c-1-0.6-2-1.2-3-1.8c-0.1-0.1-0.3,0-0.4,0c-1.5,0.6-3,1.2-4.5,1.8c-0.2,0.1-0.5,0.2-0.7,0.2
			c-0.3,0-0.6-0.1-0.8-0.5c-1.3-2.2-2.5-4.4-3.8-6.6c-0.3-0.6-0.3-1,0.3-1.4c1.2-1,2.5-2,3.7-3c0.2-0.2,0.2-0.3,0.2-0.6
			c0-0.9,0-1.8,0-2.8c0-0.1,0-0.1,0-0.2c0.1-0.4,0-0.7-0.4-1c-1.2-0.8-2.3-1.7-3.5-2.6c-0.2-0.2-0.4-0.4-0.5-0.6
			c-0.2-0.3-0.2-0.6,0-0.9c1.3-2.2,2.5-4.3,3.7-6.5c0.4-0.7,1-0.9,1.7-0.6c1.4,0.6,2.9,1.2,4.3,1.8c0.2,0.1,0.4,0.1,0.6-0.1
			c1-0.6,2-1.2,2.9-1.8c0.1-0.1,0.2-0.2,0.2-0.3c0.3-1.6,0.5-3.3,0.7-4.9c0.1-0.5,0.5-0.9,1-0.9c2.6,0,5.3,0,7.9,0
			C42.8,26.8,43.1,27.2,43.1,27.9z M38.3,53.6c3.8,0,6.9-3.2,6.9-6.9c0-3.8-3.2-6.9-6.9-6.9c-3.8,0-7,3.2-7,7
			C31.4,50.4,34.5,53.6,38.3,53.6z"/>
	</g>
</g>
</svg>
