<?xml version="1.0" encoding="utf-8"?>
<!-- Generator: Adobe Illustrator 19.1.0, SVG Export Plug-In . SVG Version: 6.00 Build 0)  -->
<svg version="1.1" id="Layer_1" xmlns="http://www.w3.org/2000/svg" xmlns:xlink="http://www.w3.org/1999/xlink" x="0px" y="0px"
	 viewBox="0 0 85.3 85.3" style="enable-background:new 0 0 85.3 85.3;" xml:space="preserve">
<style type="text/css">
	.st0{fill:#E6E6E6;}
	.st1{fill:#FFFFFF;}
	.st2{fill:#009688;}
	.st3{fill:#30537A;}
	.st4{fill:#4172B0;}
	.st5{fill:#FFB733;}
	.st6{fill:#BA000E;}
	.st7{fill:#6F201F;}
	.st8{fill:#4A8D8A;}
	.st9{fill:#3B556C;}
	.st10{fill:#D3AF73;}
	.st11{fill:#5D432A;}
	.st12{fill:#B88554;}
	.st13{fill:#B04155;}
	.st14{fill:#67A4FE;}
	.st15{fill:#E94C3A;}
	.st16{opacity:0.5;fill:#E94C3A;}
	.st17{fill:#CCCCCC;}
	.st18{opacity:0.5;fill:#CCCCCC;}
	.st19{fill:#AF392C;}
	.st20{fill-rule:evenodd;clip-rule:evenodd;fill:#FFFFFF;}
	.st21{fill:#2D3640;}
	.st22{fill:#229297;}
	.st23{fill:#81DBDE;}
	.st24{fill:#EFC84A;}
	.st25{fill:#F16600;}
	.st26{fill:#B3B3B3;}
	.st27{fill:#FFD350;}
	.st28{fill:#178F78;}
	.st29{fill:#FEFEFE;}
	.st30{fill-rule:evenodd;clip-rule:evenodd;fill:#FFB733;}
	.st31{fill:#467BBD;}
	.st32{fill:#999999;}
	.st33{fill:#333333;}
	.st34{fill:#666666;}
</style>
<g id="Time_Range_1_">
    <rect class="st5" width="90" height="90"/>
	<g>
		<path class="st15" d="M43.1,21.2c12,0,21.7,9.7,21.7,21.7s-9.7,21.7-21.7,21.7c-12,0-21.7-9.7-21.7-21.7S31.1,21.2,43.1,21.2
			 M43.1,16.4c-14.6,0-26.5,11.9-26.5,26.5s11.9,26.5,26.5,26.5c14.6,0,26.5-11.9,26.5-26.5S57.7,16.4,43.1,16.4L43.1,16.4z"/>
		<path class="st15" d="M60,59.5L60,59.5c-0.4,0.4-1.1,0.4-1.5,0l-16-16c-0.4-0.4-0.4-1.1,0-1.5l0,0c0.4-0.4,1.1-0.4,1.5,0l16,16
			C60.4,58.5,60.4,59.1,60,59.5z"/>
		<polygon class="st16" points="61.2,60.5 43.2,42.7 43.3,17.9 59.3,24.1 65.5,34.4 67.3,45 		"/>
	</g>
</g>
</svg>
